{
  "kind": "collectionType",
  "connection": "default",
  "collectionName": "faculties",
  "info": {
    "name": "faculty"
  },
  "options": {
    "increments": true,
    "timestamps": true
  },
  "attributes": {
    "name": {
      "type": "string"
    },
    "contributions": {
      "via": "faculty",
      "collection": "contribution"
    },
    "users": {
      "via": "faculty",
      "plugin": "users-permissions",
      "collection": "user"
    }
  }
}
